[Mesh]
  type = GeneratedMesh
  dim = 3
  nx = 10
  ny = 10
  nz = 10
  xmin = -5
  xmax = 5
  ymin = -5
  ymax = 5
  zmin = -5
  zmax = 5
  elem_type = HEX8
[]

[GlobalParams]
  len_scale = 1.0
  alpha1 = -0.1722883
  alpha11 = -0.07253
  alpha111 = 0.26
  alpha12 = 0.75
  alpha112 = 0.61
  alpha123 = -3.67
  permittivity = 0.5843763
  polar_x = polar_x
  polar_y = polar_y
  polar_z = polar_z
  potential_int = potential_int
[]



[Variables]
  [./polar_x]
    order = FIRST
    family = LAGRANGE
    block = '0'
    [./InitialCondition]
      type = ConstantIC
      value = 0.05
    [../]
  [../]
  [./polar_y]
    order = FIRST
    family = LAGRANGE
    block = '0'
    [./InitialCondition]
      type = ConstantIC
      value = 0.05
    [../]
  [../]
  [./polar_z]
    order = FIRST
    family = LAGRANGE
    block = '0'
    [./InitialCondition]
      type = ConstantIC
      value = 0.05
    [../]
  [../]
  [./potential_int]
    order = FIRST
    family = LAGRANGE
    [./InitialCondition]
      type = ConstantIC
      value = 0.0005
    [../]
  [../]
[]

[Kernels]
  [./bed_x]
    type = BulkEnergyDerivativeSixth
    variable = polar_x
    component = 0
  [../]
  [./bed_y]
    type = BulkEnergyDerivativeSixth
    variable = polar_y
    component = 1
  [../]
  [./bed_z]
    type = BulkEnergyDerivativeSixth
    variable = polar_z
    component = 2
  [../]
  [./polar_x_electric_E]
     type=PolarElectricEStrong
     variable = potential_int
     block = '0'
  [../]
  [./FE_E_int]
     type=Electrostatics
     variable = potential_int
     block = '0'
  [../]
  [./polar_electric_px]
     type=PolarElectricPStrong
     variable = polar_x
     component = 0
  [../]
  [./polar_electric_py]
     type=PolarElectricPStrong
     variable = polar_y
     component = 1
  [../]
  [./polar_electric_pz]
     type=PolarElectricPStrong
     variable = polar_z
     component = 2
  [../]
  [./polar_x_time]
     type=TimeDerivativeScaled
     variable=polar_x
    time_scale = 1.0
  [../]
  [./polar_y_time]
     type=TimeDerivativeScaled
     variable=polar_y
    time_scale = 1.0
  [../]
  [./polar_z_time]
     type=TimeDerivativeScaled
     variable = polar_z
    time_scale = 1.0
  [../]
[]

[BCs]
  [./potential_cube5]
    type = DirichletBC
    boundary = 'front'
    value = 0.0002
    variable = potential_int
  [../]
  [./potential_cube6]
    type = DirichletBC
    boundary = 'back'
    value = 0.0002
    variable = potential_int
  [../]

[]


[Postprocessors]
  [./bulk_energy]
   type = BulkEnergy
   execute_on = 'timestep_end'
   block = '0'
  [../]
  [./electrostatic_energy]
   type = ElectrostaticEnergy
   execute_on = 'timestep_end'
   block = '0'
  [../]
[]

[Preconditioning]
  [./smp]
    type = SMP
    full = true
    petsc_options = '-snes_view -snes_linesearch_monitor -snes_converged_reason -ksp_converged_reason '
    petsc_options_iname = '-ksp_gmres_restart  -snes_rtol -ksp_rtol -pc_type    -pc_factor_zeropivot'
    petsc_options_value = '    121            1e-8      1e-8    gamg           1e-50     '
  [../]
[]

[Executioner]
  type = Transient
  [./TimeStepper] 
    type = IterationAdaptiveDT
    dt = 0.35 
    optimal_iterations = 4 
    growth_factor = 1.4
    linear_iteration_ratio = 100
    cutback_factor =  0.55
    num_steps = 100
  [../]
  solve_type = 'NEWTON'       #"PJFNK, JFNK, NEWTON"
  scheme = 'implicit-euler'   #"implicit-euler, explicit-euler, crank-nicolson, bdf2, rk-2"
  dtmin = 1e-13
  dtmax = 0.25
  num_steps = 5
[]

[Outputs]
  print_linear_residuals = true
  print_perf_log = true
  [./out]
    type = Exodus
    file_base = out_bulk_test
    output_initial = true
    elemental_as_nodal = true
  [../]
[]
