##---------------------------TEST PROBLEM-----------------------------------#
   # Core-shell nanoparticle, 25 nm in diameter: 
   # Single-crystal round ZnO core, 15 nm in diameter.
   # Single-crystal rutile TiO2 shell, 5 nm in thickness.
   # Here, crystalline rTiO2 elastic parameters (both bulk and surface ones) in the shell were 
   # averaged out to isotropic symmetry, which effectively makes the rTiO2 shell amorphous.
##--------------------------------------------------------------------------#

[Mesh]
  file = core_shell_exodus.e
[]

[GlobalParams]
  displacements = 'disp_x disp_y disp_z'
[]

[Variables]
  [./disp_x]
    order = FIRST
    family = LAGRANGE
  [../]

  [./disp_y]
    order = FIRST
    family = LAGRANGE
  [../]
  [./disp_z]
    order = FIRST
    family = LAGRANGE
  [../]
[]

[AuxVariables]

  [./stress_xx_elastic]
    order = CONSTANT
    family = MONOMIAL
  [../]
  [./stress_yy_elastic]
    order = CONSTANT
    family = MONOMIAL
  [../]
  [./stress_zz_elastic]
    order = CONSTANT
    family = MONOMIAL
  [../]
  [./stress_xy_elastic]
    order = CONSTANT
    family = MONOMIAL
  [../]
  [./stress_yz_elastic]
    order = CONSTANT
    family = MONOMIAL
  [../]
  [./stress_zx_elastic]
    order = CONSTANT
    family = MONOMIAL
  [../]
  [./strain_xx_elastic]
    order = CONSTANT
    family = MONOMIAL
  [../]
  [./strain_yy_elastic]
    order = CONSTANT
    family = MONOMIAL
  [../]
  [./strain_zz_elastic]
    order = CONSTANT
    family = MONOMIAL
  [../]
  [./strain_xy_elastic]
    order = CONSTANT
    family = MONOMIAL
  [../]
  [./strain_yz_elastic]
    order = CONSTANT
    family = MONOMIAL
  [../]
  [./strain_zx_elastic]
    order = CONSTANT
    family = MONOMIAL
  [../]
  [./EgZnO]
    order = CONSTANT
    family = MONOMIAL
  [../]
[]

[Kernels]
  [./TensorMechanics]
    use_displaced_mesh = false
  [../]
[]


[AuxKernels]

  [./stress_xx]
    type = RankTwoAux
    rank_two_tensor = stress
    variable = stress_xx_elastic
    index_i = 0
    index_j = 0
    use_displaced_mesh = false
    execute_on = 'timestep_end'
  [../]
  [./stress_yy]
    type = RankTwoAux
    rank_two_tensor = stress
    variable = stress_yy_elastic
    index_i = 1
    index_j = 1
    use_displaced_mesh = false
    execute_on = 'timestep_end'
  [../]
  [./stress_zz]
    type = RankTwoAux
    rank_two_tensor = stress
    variable = stress_zz_elastic
    index_i = 2
    index_j = 2
    use_displaced_mesh = false
    execute_on = 'timestep_end'
  [../]
  [./stress_xy]
    type = RankTwoAux
    rank_two_tensor = stress
    variable = stress_xy_elastic
    index_i = 0
    index_j = 1
    use_displaced_mesh = false
    execute_on = 'timestep_end'
  [../]
  [./stress_yz]
    type = RankTwoAux
    rank_two_tensor = stress
    variable = stress_yz_elastic
    index_i = 1
    index_j = 2
    use_displaced_mesh = false
    execute_on = 'timestep_end'
  [../]
  [./stress_zx]
    type = RankTwoAux
    rank_two_tensor = stress
    variable = stress_zx_elastic
    index_i = 2
    index_j = 0
    use_displaced_mesh = false
    execute_on = 'timestep_end'
  [../]
  [./strain_xx]
    type = RankTwoAux
    rank_two_tensor = elastic_strain
    variable = strain_xx_elastic
    index_i = 0
    index_j = 0
    use_displaced_mesh = false
    execute_on = 'timestep_end'
  [../]
  [./strain_yy]
    type = RankTwoAux
    rank_two_tensor = elastic_strain
    variable = strain_yy_elastic
    index_i = 1
    index_j = 1
    use_displaced_mesh = false
    execute_on = 'timestep_end'
  [../]
  [./strain_zz]
    type = RankTwoAux
    rank_two_tensor = elastic_strain
    variable = strain_zz_elastic
    index_i = 2
    index_j = 2
    use_displaced_mesh = false
    execute_on = 'timestep_end'
  [../]
  [./strain_xy]
    type = RankTwoAux
    rank_two_tensor = elastic_strain
    variable = strain_xy_elastic
    index_i = 0
    index_j = 1
    use_displaced_mesh = false
    execute_on = 'timestep_end'
  [../]
  [./strain_yz]
    type = RankTwoAux
    rank_two_tensor = elastic_strain
    variable = strain_yz_elastic
    index_i = 1
    index_j = 2
    use_displaced_mesh = false
    execute_on = 'timestep_end'
  [../]
  [./strain_zx]
    type = RankTwoAux
    rank_two_tensor = elastic_strain
    variable = strain_zx_elastic
    index_i = 2
    index_j = 0
    use_displaced_mesh = false
    execute_on = 'timestep_end'
  [../]
  [./bandgap]
    ### Here we use the results from Phys Rev B 88, 235210 (2013) Wagner et al 
    # which computes the strain-induced bandgap change of wurtzite ZnO using 
    # the HSE approach. Here E0, db, du, Rb and nu are material properties. 
    # Units will be in eV. Note we are justified in the strain_xx = strain_yy(using histo2d)
    # Here we consider Gamma_7c-Gamma-7v as an example
    type = BandGapAuxZnO
    variable = EgZnO
    relaxed_energy = 3.200
    uniaxial_strain_rate = -3.800
    biaxial_strain_rate = -0.450
    biaxial_relaxation_coeff = 0.929
    poisson_ratio = 0.31
    execute_on = 'timestep_end'
  [../]
[]

[BCs]

# Positive pressure -- compression, negative pressure -- tension
  [./hydrostatic_pressure_X]
    type = HydrostaticBC
    variable = disp_x
    boundary = '1'
    pressure = 0.0
    component = 0
  [../]

  [./hydrostatic_pressure_Y]
    type = HydrostaticBC
    variable = disp_y
    boundary = '1'
    pressure = 0.0
    component = 1
  [../]

  [./hydrostatic_pressure_Z]
    type = HydrostaticBC
    variable = disp_z
    boundary = '1'
    pressure = 0.0
    component = 2
  [../]


# Surface elastic parameters for w-ZnO surface taken from Table III of JAP 111, 124305 (2012)
# and averaged out to represent an isotropic surface described by one diagonal elastic const C_1111,
# one shear elastic const C_1122 and one residual stress const tau_11.
#
# Original (anizotropic, w-ZnO 10-10 surface) elastic consts and residual stresses in N/m (PBE):
# C_1111 = 49.1, C_2222 = 34.9, C_1122 = 15.1, C_1212 = 13.7, tau_11 = -2.1, tau_22 = -1.4
#
# Isotropic C_1111 = [C_1111 + C_2222]/2 = 42.0, C_1122 = 15.0, C_1212 is computed automatically
# from C_1111 and C_1122, tau_11 = [tau_11 + tau_22]/2 = -1.7
# Conversion to [N/nm] multiplies everything by 10^{-9}

  [./surface_elasticity_X]
    type = SurfaceMechanicsBC
    disp_x = disp_x
    disp_y = disp_y
    disp_z = disp_z
    variable = disp_x
    boundary = '1'
    surface_euler_angle_1 = 0.0
    surface_euler_angle_2 = 0.0
    surface_euler_angle_3 = 0.0
# Surface elastic tensor C_1111, C_1122
    Cs_ijkl = '42.0e-09 15.0e-09'
# Intrinsic surface stress
    taus = '-1.7e-09'
    component = 0
  [../]

  [./surface_elasticity_Y]
    type = SurfaceMechanicsBC
    disp_x = disp_x
    disp_y = disp_y
    disp_z = disp_z
    variable = disp_y
    boundary = '1'
    surface_euler_angle_1 = 0.0
    surface_euler_angle_2 = 0.0
    surface_euler_angle_3 = 0.0
# Surface elastic tensor C_1111, C_1122
    Cs_ijkl = '42.0e-09 15.0e-09'
# Intrinsic surface stress
    taus = '-1.7e-09'
    component = 1
  [../]

  [./surface_elasticity_Z]
    type = SurfaceMechanicsBC
    disp_x = disp_x
    disp_y = disp_y
    disp_z = disp_z
    variable = disp_z
    boundary = '1'
    surface_euler_angle_1 = 0.0
    surface_euler_angle_2 = 0.0
    surface_euler_angle_3 = 0.0 
    # Surface elastic tensor C_1111, C_1122
    Cs_ijkl = '42.0e-09 15.0e-09'
    # Intrinsic surface stress
    taus = '-1.7e-09'
    component = 2
  [../]

[]


[Materials]
  [./shell_grain1]
    # wurtzite polycrystalline film (see Table 1.6 and Ref. 96) in "Zinc Oxide: Fundamentals, Materials and Device Technology"
    # by Hadis Morkoc and Umit Ozgur (2009 WILEY-VCH Verlag GmbH & Co. KGaA, Weinheim ISBN: 978-3-527-40813-9), Chapter 1.
    # Isotropic parameters (B, G, E, nu) computed from elastic consts of the film:
    # Bulk modulus B = 147.6 GPa (good agreement with the value from Ref. 12 ibid)
    # Poisson ratio nu = C13/(C11+C12) = 0.365
    # From that computed Young's modulus E = 3 B ( 1 - 2 nu ) = 119.3 GPa (good agreement with the value from Ref. 101 ibid)
    # From that computed Shear modulus G = E / 2*( 1 + nu ) = 43.7 GPa
    #
    # Recast into (lambda, mu) Lame constants:
    # lambda = B - 2*G/3 = 118.5 GPa, mu = G = 43.7 GPa, 2*mu + lambda = 205.9 GPa; see Nye 4.2 or wikipedia entry for "Hooke's law."
    # C11 = C22 = C33 = 2*mu + lambda, C12 = C13 = C23 = lambda, C44 = C55 = C66 = mu.
    #
    # In GPa:
    #    C_ijkl= 205.9 118.5 118.5 205.9 118.5 205.9 43.7 43.7 43.7
    # In N/(nm)^2, 1 GPa = 1 * 10^{-9} N/(nm)^2:

    type = LinearElasticMaterial
    block = '1'
    disp_x = disp_x
    disp_y = disp_y
    disp_z = disp_z
    fill_method = symmetric9

    # C11 C12 C13 C22 C23 C33 C44 C55 C66

    C_ijkl = '205.9e-09 118.5e-09 118.5e-09 205.9e-09 118.5e-09 205.9e-09 43.7e-09 43.7e-09 43.7e-09'
    euler_angle_1 = 0.0
    euler_angle_2 = 0.0
    euler_angle_3 = 0.0
  [../]



  [./core]
    # Zn core (full [hexagonal] crystalline symmetry)
    # Averaged constants for crystalline Zn, see Table 2 in H. M. Ledbetter, J. Phys. Chem. Ref. Data 6, 1181 (1977).
    # In GPa: C_ijkl = 163.0 30.6 48.1 163.0 48.1 60.3 39.4 39.4 65.9
    # In N/(nm)^2, 1 GPa = 1 * 10^{-9} N/(nm)^2:

    type = LinearElasticMaterial
    block = '2'
    disp_x = disp_x
    disp_y = disp_y
    disp_z = disp_z
    fill_method = symmetric9

    # C11 C12 C13 C22 C23 C33 C44 C55 C66

    C_ijkl = '163.0e-09 30.6e-09 48.1e-09 163.0e-09 48.1e-09 60.3e-09 39.4e-09 39.4e-09 65.9e-09'
    euler_angle_1 = 0.0
    euler_angle_2 = 0.0
    euler_angle_3 = 0.0
  [../]
[]

[Preconditioning]
  active = 'smp_bjacobi'
  [./smp_bjacobi]
  type = SMP
  full = true
  petsc_options_iname = '-ksp_type -pc_type  -snes_rtol -ksp_rtol'
  petsc_options_value = '    gmres    bjacobi     1e-8       1e-8'
  [../]
[]

[Executioner]
  type = Steady
  solve_type = 'PJFNK'       #"PJFNK, JFNK, NEWTON"
  #PJFNK IS SLOW ~1500 seconds but NEWTON introduces the rigid body modes and causes many nonlinear iterations to show up
[]

[Outputs]
  print_perf_log = true
  [./Exodus]
    type = Exodus
    file_base = out_ZnZnO_xstl000_core_iso_shell_PJFNK
    elemental_as_nodal = true
  [../]
[]
